{
  "$schema": "../../node_modules/ng-packagr/ng-package.schema.json",
  "dest": "../../dist/api-tmdb-lib",
  "lib": {
    "entryFile": "src/public_api.ts"
  },
  "whitelistedNonPeerDependencies": [
    "toast-lib"
  ]
}